…
pattern <- memo %>%
  dplyr::filter(POS1 == "動詞") %>%
  dplyr::group_by(sentence_idx, chunk_idx, D1) %>%
  dplyr::group_map(~ .x %>%
    dplyr::mutate(collocation = stringr::str_c(
      "",
      memo$Original[memo$sentence_idx == .y$sentence_idx & memo$D2 == .y$D1 & memo$POS1 == "助詞"],
      collapse = " "
    ))) %>%
  purrr::map_dfr(~.) %>%
  dplyr::select(Original, collocation)

pattern
#> # A tibble: 49 x 2
#>    Original collocation 
#>    <chr>    <chr>       
#>  1 生れる   "で"        
#>  2 つく     "か が"     
#>  3 する     ""          
#>  4 泣く     "で"        
#>  5 する     "て だけ は"
#>  6 いる     "て だけ は"
#>  7 始める   "で"        
#>  8 見る     "は を"     
#>  9 聞く     "で"        
#> 10 捕える   "を"        
#> # ... with 39 more rows
…
pattern
#> # A tibble: 49 x 3
#>    Original collocation  chunk                             
#>    <chr>    <chr>        <chr>                             
#>  1 生れる   "で"         "　どこで"                        
#>  2 つく     "か が"      "生れたか 見当が"                 
#>  3 する     ""           ""                                
#>  4 泣く     "で"         "所で"                            
#>  5 する     "て だけ は" "泣いて いた事だけは いた事だけは"
#>  6 いる     "て だけ は" "泣いて いた事だけは いた事だけは"
#>  7 始める   "で"         "ここで"                          
#>  8 見る     "は を"      "吾輩は ものを"                   
#>  9 聞く     "で"         "あとで"                          
#> 10 捕える   "を"         "我々を"                          
#> # ... with 39 more rows
…
